<?xml version="1.0" encoding="iso-8859-1"?>
<!-- Generator: Adobe Illustrator 19.0.0, SVG Export Plug-In . SVG Version: 6.00 Build 0)  -->
<svg version="1.1" id="Capa_1" xmlns="http://www.w3.org/2000/svg" xmlns:xlink="http://www.w3.org/1999/xlink" x="0px" y="0px"
	 viewBox="0 0 512.365 512.365" style="enable-background:new 0 0 512.365 512.365;" xml:space="preserve">
<path style="fill:#F3705A;" d="M512,224.001L512,224.001c-2.133-11.733-13.867-18.133-25.6-16L42.667,308.268
	c-11.733,2.133-18.133,13.867-16,25.6l0,0c2.133,11.733,13.867,18.133,25.6,16L496,249.601
	C506.667,246.401,514.133,235.735,512,224.001z"/>
<path style="fill:#415A6B;" d="M387.2,426.668l-94.933-137.6h-46.933l-94.933,137.6c-5.333,7.467-3.2,17.067,4.267,21.333
	c7.467,5.333,17.067,3.2,21.333-4.267l92.8-134.4l93.867,135.467c5.333,7.467,14.933,8.533,21.333,4.267
	C390.4,443.735,392.533,434.135,387.2,426.668z"/>
<circle style="fill:#CED6E0;" cx="268.8" cy="278.401" r="43.733"/>
<circle style="fill:#ADB3BA;" cx="268.8" cy="278.401" r="23.467"/>
<circle style="fill:#FFD15C;" cx="409.6" cy="141.868" r="81.067"/>
<circle style="fill:#F7B64C;" cx="409.6" cy="141.868" r="59.733"/>
<path style="fill:#FFD15C;" d="M414.933,183.468l-2.133-7.467c-8.533,1.067-17.067-1.067-25.6-6.4l6.4-12.8
	c6.4,3.2,11.733,5.333,16,5.333l-3.2-14.933c-7.467,0-12.8-1.067-17.067-3.2c-4.267-2.133-6.4-6.4-7.467-11.733
	c-1.067-5.333,0-10.667,2.133-14.933c3.2-4.267,7.467-7.467,12.8-9.6l-1.067-5.333l10.667-2.133l1.067,5.333
	c6.4-1.067,13.867,1.067,21.333,4.267l-5.333,13.867c-4.267-2.133-8.533-3.2-12.8-3.2l3.2,13.867c7.467,0,12.8,1.067,17.067,4.267
	c4.267,2.133,6.4,6.4,8.533,11.733c1.067,5.333,0,10.667-2.133,14.933c-3.2,4.267-7.467,7.467-13.867,9.6l1.067,6.4L414.933,183.468
	z M401.067,121.601c-2.133,2.133-3.2,3.2-3.2,6.4c1.067,2.133,2.133,4.267,5.333,5.333L401.067,121.601z M424.533,153.601
	c0-1.067-1.067-2.133-2.133-3.2c-1.067-1.067-2.133-1.067-4.267-2.133l3.2,11.733C423.467,158.935,424.533,156.801,424.533,153.601z
	"/>
<polygon style="fill:#66C6B9;" points="193.067,171.735 74.667,97.068 0,215.468 "/>
<rect x="57.505" y="172.551" transform="matrix(-0.2195 -0.9756 0.9756 -0.2195 -105.8897 400.1201)" style="fill:#E8EAE9;" width="99.199" height="139.732"/>
<rect x="89.517" y="238.924" transform="matrix(-0.9756 0.2195 -0.2195 -0.9756 280.3375 498.966)" style="fill:#415A6B;" width="45.866" height="52.266"/>
<g>
</g>
<g>
</g>
<g>
</g>
<g>
</g>
<g>
</g>
<g>
</g>
<g>
</g>
<g>
</g>
<g>
</g>
<g>
</g>
<g>
</g>
<g>
</g>
<g>
</g>
<g>
</g>
<g>
</g>
</svg>
