<?xml version="1.0" encoding="utf-8"?>
<!-- Generator: Adobe Illustrator 24.2.1, SVG Export Plug-In . SVG Version: 6.00 Build 0)  -->
<svg version="1.1" id="Layer_1" xmlns="http://www.w3.org/2000/svg" xmlns:xlink="http://www.w3.org/1999/xlink" x="0px" y="0px"
	 viewBox="0 0 200 151" style="enable-background:new 0 0 200 151;" xml:space="preserve">
<style type="text/css">
	.st0{fill:#010101;}
	.st1{fill:none;stroke:#010101;stroke-width:1.25;stroke-linecap:round;stroke-linejoin:round;stroke-miterlimit:10;}
	.st2{fill-rule:evenodd;clip-rule:evenodd;fill:#010101;}
	.st3{fill:#010101;stroke:#010101;stroke-width:0.25;stroke-miterlimit:10;}
	.st4{fill:none;stroke:#000000;stroke-width:3;stroke-miterlimit:10;}
	.st5{fill:#FFFFFF;}
	.st6{fill:#FFFFFF;stroke:#000000;stroke-width:3;stroke-miterlimit:10;}
	.st7{fill:#FFFFFF;stroke:#000000;stroke-width:2;stroke-miterlimit:10;}
</style>
<g>
	<path class="st0" d="M174.92,136.68h-7.49v-29.97c0-1.38-1.12-2.5-2.5-2.5h-9.99c1.38,0,2.5-1.12,2.5-2.5c0-1.38-1.12-2.5-2.5-2.5
		h-4.99v-4.99h9.99c1.38,0,2.5-1.12,2.5-2.5c0-0.08,0-0.17-0.01-0.25l-2.5-24.97c-0.13-1.28-1.2-2.25-2.48-2.25h-19.98
		c-1.28,0-2.36,0.97-2.48,2.25l-2.5,24.97c-0.14,1.37,0.86,2.6,2.23,2.73c0.08,0.01,0.17,0.01,0.25,0.01h9.99v4.99h-4.99
		c-1.38,0-2.5,1.12-2.5,2.5c0,1.38,1.12,2.5,2.5,2.5h-7.49c-1.38,0-2.5,1.12-2.5,2.5v29.97h-4.99V119.2c1.38,0,2.5-1.12,2.5-2.5
		v-2.5c0-3.57-1.91-6.86-4.99-8.64V84.24c-0.01-5.51-4.48-9.98-9.99-9.99H47.56c-5.51,0.01-9.98,4.48-9.99,9.99v21.32
		c-3.09,1.78-4.99,5.08-4.99,8.64v2.5c0,1.38,1.12,2.5,2.5,2.5v17.48h-9.99c-1.38,0-2.5,1.12-2.5,2.5s1.12,2.5,2.5,2.5h149.83
		c1.38,0,2.5-1.12,2.5-2.5S176.3,136.68,174.92,136.68z M42.56,84.24c0-2.76,2.24-4.99,4.99-4.99h64.93c2.76,0,4.99,2.24,4.99,4.99
		v19.98h-10.42c1.38-3.9-0.66-8.18-4.55-9.56c-0.81-0.29-1.65-0.43-2.51-0.43h-9.99c-4.13,0-7.49,3.35-7.49,7.48
		c0,0.85,0.15,1.7,0.43,2.51h-5.86c1.38-3.9-0.66-8.18-4.55-9.56c-0.81-0.29-1.65-0.43-2.51-0.43h-9.99c-4.13,0-7.49,3.35-7.49,7.48
		c0,0.85,0.15,1.7,0.43,2.51H42.56V84.24z M102.5,101.72c0,1.38-1.12,2.5-2.5,2.5h-9.99c-1.38,0-2.5-1.12-2.5-2.5
		c0-1.38,1.12-2.5,2.5-2.5H100C101.38,99.23,102.5,100.34,102.5,101.72z M72.53,101.72c0,1.38-1.12,2.5-2.5,2.5h-9.99
		c-1.38,0-2.5-1.12-2.5-2.5c0-1.38,1.12-2.5,2.5-2.5h9.99C71.41,99.23,72.53,100.34,72.53,101.72z M119.98,136.68H40.07v-2.5h79.91
		V136.68z M119.98,129.19H40.07v-9.99h79.91V129.19z M37.57,114.21c0-2.76,2.24-4.99,4.99-4.99h74.92c2.76,0,4.99,2.24,4.99,4.99
		H37.57z M137.72,89.23l2-19.98h15.46l2,19.98H137.72z M162.43,136.68h-27.47V119.2h27.47V136.68z M162.43,114.21h-27.47v-4.99
		h27.47V114.21z"/>
	<path class="st0" d="M112.49,9.32H47.56c-1.38,0-2.5,1.12-2.5,2.5v44.95c0,1.38,1.12,2.5,2.5,2.5h64.93c1.38,0,2.5-1.12,2.5-2.5
		V11.82C114.98,10.44,113.87,9.32,112.49,9.32z M53,54.27l11.77-13.69l12.19,13.69H53z M109.99,54.27H83.64l-9.65-10.83
		c0.04-0.04,0.08-0.07,0.12-0.11l17.85-17.73l18.03,18.17V54.27z M109.99,36.69L93.75,20.32c-0.47-0.47-1.1-0.74-1.76-0.74
		c-0.66,0-1.3,0.26-1.77,0.72L70.67,39.71l-4.08-4.58c-0.48-0.53-1.17-0.84-1.89-0.84c-0.72,0.01-1.4,0.32-1.87,0.87L50.06,50.03
		V14.32h59.93V36.69z"/>
	<path class="st0" d="M65.04,31.8c4.14,0,7.49-3.35,7.49-7.49s-3.35-7.49-7.49-7.49c-4.14,0-7.49,3.35-7.49,7.49
		C57.55,28.44,60.9,31.79,65.04,31.8z M65.04,21.81c1.38,0,2.5,1.12,2.5,2.5s-1.12,2.5-2.5,2.5c-1.38,0-2.5-1.12-2.5-2.5
		C62.54,22.93,63.66,21.81,65.04,21.81z"/>
</g>
</svg>
